{
    "name": "dygren",
    "description": "Small 2D graphic engine",
    "copyright": "Copyright © 2014, Vlad Rindevich",
    "authors": ["Vlad Rindevich"],
    "importPaths": ["source/"],
    "license": "BSL-1.0",
    "version": "0.2.8",
    "configurations": [
        {
            "targetType": "library",
            "name": "build"
        },
        {
            "buildOptions": ["unittests"],
            "targetType": "executable",
            "versions": ["TestDyrgen"],
            "name": "test"
        }
    ],
    "dependencies": {
        "derelict-gl3": ">=1.0.8",
        "derelict-sdl2": ">=1.2.7",
        "mathed": ">=0.2.0",
    }
}